{
  "project_info": {
    "project_number": "598670810170",
    "firebase_url": "https://felipehog-1550678723703.firebaseio.com",
    "project_id": "felipehog-1550678723703",
    "storage_bucket": "felipehog-1550678723703.appspot.com"
  },
  "client": [
    {
      "client_info": {
        "mobilesdk_app_id": "1:598670810170:android:cbbda819b4b4c8ce",
        "android_client_info": {
          "package_name": "com.softernium.hog"
        }
      },
      "oauth_client": [
        {
          "client_id": "598670810170-jad6t4fjiovdrcm3uj15rdi4rjvrsarh.apps.googleusercontent.com",
          "client_type": 3
        }
      ],
      "api_key": [
        {
          "current_key": "AIzaSyDdYe4CwfnJVJChWlAnzhg4-tGhbJdF93A"
        }
      ],
      "services": {
        "appinvite_service": {
          "other_platform_oauth_client": [
            {
              "client_id": "598670810170-jad6t4fjiovdrcm3uj15rdi4rjvrsarh.apps.googleusercontent.com",
              "client_type": 3
            }
          ]
        }
      }
    }
  ],
  "configuration_version": "1"
}